Create Unique Pseudonymous Anonimals • noah
…
Adding pseudonyms to data frames

In this example we use the diabetic retinopathy dataset from the package survival and add a new column with a pseudonym for each unique id. There are two ways to do this with noah:

Using pseudonymize()

Here we use pseudonymize() with dplyr::mutate(). We also use relocate to move the pseudonyms to the first column:

library(dplyr)
diabetic <- as_tibble(survival::diabetic)

diabetic %>% 
  mutate(pseudonym = pseudonymize(id)) %>% 
  relocate(pseudonym)
#> # A tibble: 394 x 9
#>    pseudonym             id laser   age eye     trt  risk  time status
#>    <chr>              <int> <fct> <int> <fct> <int> <int> <dbl>  <int>
#>  1 Waggish Caribou        5 argon    28 left      0     9  46.2      0
#>  2 Waggish Caribou        5 argon    28 right     1     9  46.2      0
#>  3 Furtive Capybara      14 xenon    12 left      1     8  42.5      0
#>  4 Furtive Capybara      14 xenon    12 right     0     6  31.3      1
#>  5 Weary Alligator       16 xenon     9 left      1    11  42.3      0
#>  6 Weary Alligator       16 xenon     9 right     0    11  42.3      0
#>  7 Aggressive Fox        25 xenon     9 left      0    11  20.6      0
#>  8 Aggressive Fox        25 xenon     9 right     1    11  20.6      0
#>  9 Utopian Parrotfish    29 xenon    13 left      0    10   0.3      1
#> 10 Utopian Parrotfish    29 xenon    13 right     1     9  38.8      0
#> # ... with 384 more rows

Using add_pseudonyms()

add_pseudonyms() wraps mutate() and relocate(). It also supports tidyselect syntax for selecting the key columns:

diabetic %>% 
  add_pseudonyms(id, where(is.factor))
#> # A tibble: 394 x 9
#>    pseudonym                   id laser   age eye     trt  risk  time status
#>    <chr>                    <int> <fct> <int> <fct> <int> <int> <dbl>  <int>
#>  1 Yummy Ocelot                 5 argon    28 left      0     9  46.2      0
#>  2 Tidy Swift                   5 argon    28 right     1     9  46.2      0
#>  3 Exotic Aardvark             14 xenon    12 left      1     8  42.5      0
#>  4 Tasty Tern                  14 xenon    12 right     0     6  31.3      1
#>  5 Exciting Barracuda          16 xenon     9 left      1    11  42.3      0
#>  6 Astonishing Rat             16 xenon     9 right     0    11  42.3      0
#>  7 Holistic Sawfish            25 xenon     9 left      0    11  20.6      0
#>  8 Healthy Porcupine           25 xenon     9 right     1    11  20.6      0
#>  9 Cooperative Hippopotamus    29 xenon    13 left      0    10   0.3      1
#> 10 Utter Constrictor           29 xenon    13 right     1     9  38.8      0
#> # ... with 384 more rows
…
ark <- Ark$new()

# split dataset into left and right eye and pseudonymize separately
diabetic_left <- diabetic %>% 
  filter(eye == "left") %>% 
  add_pseudonyms(id, .ark = ark)

diabetic_right <- diabetic %>% 
  filter(eye == "right") %>% 
  add_pseudonyms(id, .ark = ark)

# reunite the data sets again
bind_rows(diabetic_left, diabetic_right) %>% 
  arrange(id)
#> # A tibble: 394 x 9
#>    pseudonym              id laser   age eye     trt  risk  time status
#>    <chr>               <int> <fct> <int> <fct> <int> <int> <dbl>  <int>
#>  1 Nauseating Basilisk     5 argon    28 left      0     9  46.2      0
#>  2 Nauseating Basilisk     5 argon    28 right     1     9  46.2      0
#>  3 Discreet Marlin        14 xenon    12 left      1     8  42.5      0
#>  4 Discreet Marlin        14 xenon    12 right     0     6  31.3      1
#>  5 Violent Guan           16 xenon     9 left      1    11  42.3      0
#>  6 Violent Guan           16 xenon     9 right     0    11  42.3      0
#>  7 Abashed Loris          25 xenon     9 left      0    11  20.6      0
#>  8 Abashed Loris          25 xenon     9 right     1    11  20.6      0
#>  9 Illustrious Leech      29 xenon    13 left      0    10   0.3      1
#> 10 Illustrious Leech      29 xenon    13 right     1     9  38.8      0
#> # ... with 384 more rows
…
