…
#### Using `mutate()` and `pseudonymize()`

We can add pseudonyms using `pseudonymize()` and `dplyr::mutate()`. Here
we add a new column with a pseudonym for each unique id:

``` r
library(dplyr)
diabetic <- as_tibble(survival::diabetic)

diabetic %>% 
  mutate(pseudonym = pseudonymize(id)) %>% 
  relocate(pseudonym)
#> # A tibble: 394 x 9
#>    pseudonym          id laser   age eye     trt  risk  time status
#>    <chr>           <int> <fct> <int> <fct> <int> <int> <dbl>  <int>
#>  1 Eight Swordfish     5 argon    28 left      0     9  46.2      0
#>  2 Eight Swordfish     5 argon    28 right     1     9  46.2      0
#>  3 Standing Serval    14 xenon    12 left      1     8  42.5      0
#>  4 Standing Serval    14 xenon    12 right     0     6  31.3      1
#>  5 Silent Krill       16 xenon     9 left      1    11  42.3      0
#>  6 Silent Krill       16 xenon     9 right     0    11  42.3      0
#>  7 Graceful Bull      25 xenon     9 left      0    11  20.6      0
#>  8 Graceful Bull      25 xenon     9 right     1    11  20.6      0
#>  9 Lame Giraffe       29 xenon    13 left      0    10   0.3      1
#> 10 Lame Giraffe       29 xenon    13 right     1     9  38.8      0
#> # ... with 384 more rows
```

#### Using `add_pseudonyms()`

We can also use the `add_pseudonyms()` function, which wraps the mutate
and relocate step and supports `tidyselect` syntax for the selection of
the identifier columns:

``` r
diabetic %>% 
  add_pseudonyms(where(is.factor))
#> # A tibble: 394 x 9
#>    pseudonym           id laser   age eye     trt  risk  time status
#>    <chr>            <int> <fct> <int> <fct> <int> <int> <dbl>  <int>
#>  1 Flaky Shrimp         5 argon    28 left      0     9  46.2      0
#>  2 Green Stingray       5 argon    28 right     1     9  46.2      0
#>  3 Spectacular Newt    14 xenon    12 left      1     8  42.5      0
#>  4 Moldy Lionfish      14 xenon    12 right     0     6  31.3      1
#>  5 Spectacular Newt    16 xenon     9 left      1    11  42.3      0
#>  6 Moldy Lionfish      16 xenon     9 right     0    11  42.3      0
#>  7 Spectacular Newt    25 xenon     9 left      0    11  20.6      0
#>  8 Moldy Lionfish      25 xenon     9 right     1    11  20.6      0
#>  9 Spectacular Newt    29 xenon    13 left      0    10   0.3      1
#> 10 Moldy Lionfish      29 xenon    13 right     1     9  38.8      0
#> # ... with 384 more rows
```
…
``` r
# split dataset into left and right eye and pseudonymize separately
diabetic_left <- diabetic %>% 
  filter(eye == "left") %>% 
  add_pseudonyms(id, .ark = ark)

diabetic_right <- diabetic %>% 
  filter(eye == "right") %>% 
  add_pseudonyms(id, .ark = ark)

# reunite the data sets again
bind_rows(diabetic_left, diabetic_right) %>% 
  arrange(id)
#> # A tibble: 394 x 9
#>    pseudonym           id laser   age eye     trt  risk  time status
#>    <chr>            <int> <fct> <int> <fct> <int> <int> <dbl>  <int>
#>  1 Phobic Planarian     5 argon    28 left      0     9  46.2      0
#>  2 Phobic Planarian     5 argon    28 right     1     9  46.2      0
#>  3 Tasteless Tiglon    14 xenon    12 left      1     8  42.5      0
#>  4 Tasteless Tiglon    14 xenon    12 right     0     6  31.3      1
#>  5 Melted Butterfly    16 xenon     9 left      1    11  42.3      0
#>  6 Melted Butterfly    16 xenon     9 right     0    11  42.3      0
#>  7 Fumbling Locust     25 xenon     9 left      0    11  20.6      0
#>  8 Fumbling Locust     25 xenon     9 right     1    11  20.6      0
#>  9 Right Peacock       29 xenon    13 left      0    10   0.3      1
#> 10 Right Peacock       29 xenon    13 right     1     9  38.8      0
#> # ... with 384 more rows
```
…
